{
  "images" : [
    {
      "filename" : "ic_book_mark.png",
      "idiom" : "universal",
      "scale" : "1x"
    },
    {
      "filename" : "ic_book_mark@2x.png",
      "idiom" : "universal",
      "scale" : "2x"
    },
    {
      "filename" : "ic_book_mark@3x.png",
      "idiom" : "universal",
      "scale" : "3x"
    }
  ],
  "info" : {
    "author" : "xcode",
    "version" : 1
  }
}
